<svg width="39.132mm" height="46.059mm" version="1.1" viewBox="0 0 39.132 46.059" xmlns="http://www.w3.org/2000/svg">
 <g transform="translate(-78.474 -95.423)" fill="none" stroke-linecap="round">
  <g stroke="#fff" stroke-width="5">
   <path d="m89.252 106.84h17.576"/>
   <path d="m89.252 117.26h17.576"/>
   <path d="m89.252 127.69h9.4785"/>
  </g>
  <path d="m96.588 139.23h-11.365c-2.4926 0-4.4994-2.0067-4.4994-4.4994v-32.56c0-2.4926 2.0067-4.4994 4.4994-4.4994h25.634c2.4926 0 4.4994 2.0067 4.4994 4.4994v12.528" stroke="#fffffe" stroke-linejoin="round" stroke-width="4.5" style="paint-order:markers fill stroke"/>
 </g>
 <g stroke="#fffffe" stroke-linecap="round" stroke-linejoin="round">
  <rect x="25.217" y="37.285" width="20.424" height="11.872" fill="#fcfcfc" stroke-width="3.8796" style="paint-order:markers fill stroke"/>
  <rect x="29.038" y="26.321" width="12.782" height="17.771" rx="6.391" ry="5.6176" fill="none" stroke-width="4.5" style="paint-order:markers fill stroke"/>
 </g>
</svg>
